91.188d0               ! MZ
80.419d0                 ! MW
115d0                   ! MH
175.0d0                 ! mt
4.8d0                   ! mb
1.35d0                  ! mc
1.777d0                 ! mtau
128.878d0               ! alpha^-1 (MZ)
0.23113d0               ! sW2 (MZ)

